
    digraph textX {
    fontname = "Bitstream Vera Sans"
    fontsize = 8
    node[
        shape=record,
        style=filled,
        fillcolor=aliceblue
    ]
    nodesep = 0.3
    edge[dir=black,arrowtail=empty]


5367148608[ label="{HelloWorldModel|}"]

5367151664[ label="{Who|name: STRING\l}"]



5367148608 -> 5367151664[arrowtail=diamond, dir=both, headlabel="to_greet 0..*"]

}
